{
  "NAVBAR": [
    { "name": "about me", "link": "#aboutme" },
    { "name": "projects", "link": "#projects" },
    { "name": "contact", "link": "#contact" }
  ],
  "TOOLS": [
    {
      "name": "React",
      "path": "/img/logos/react.svg",
      "iconOffsetTop": "7.5",
      "bubbleScale": "1.4",
      "position": { "x": "-100%", "y": "-70%", "scrollSpeed": "1" }
    },
    {
      "name": "Vue",
      "path": "/img/logos/vue.svg",
      "bubbleScale": "1.2",
      "position": { "x": "-60%", "y": "120%", "scrollSpeed": "1.3" }
    },
    {
      "name": "Sass",
      "path": "/img/logos/sass.svg",
      "bubbleScale": "1.1",
      "position": { "x": "-280%", "y": "", "scrollSpeed": "2.2" }
    },
    {
      "name": "Visual Studio Code",
      "path": "/img/logos/vscode.svg",
      "bubbleScale": "1.3",
      "position": { "x": "110%", "y": "-60%", "scrollSpeed": "1.2" },
      "smalltext": "true"
    },
    {
      "name": "Framer",
      "path": "/img/logos/framer.svg",
      "iconScale": "1.5",
      "bubbleScale": "0.9",
      "position": { "x": "370%", "y": "-40%", "scrollSpeed": "1.8" }
    },
    {
      "name": "Figma",
      "path": "/img/logos/figma.svg",
      "bubbleScale": "1.05",
      "position": { "x": "250%", "y": "80%", "scrollSpeed": "1.15" }
    },
    {
      "name": "TypeScript",
      "path": "/img/logos/ts.svg",
      "bubbleScale": "0.9",
      "position": { "x": "-290%", "y": "140%", "scrollSpeed": "2.5" },
      "smalltext": "true"
    },
    {
      "name": "Svelte",
      "path": "/img/logos/svelte.svg",
      "bubbleScale": "1.1",
      "position": { "x": "120%", "y": "155%", "scrollSpeed": "1.1" }
    }
  ],
  "PROJECTS": [
    {
      "title": "Definario",
      "imageList": [
        {
          "src": "img/project_images/definario_1.png",
          "altText": "Homescreen of the Definario app",
          "aspectRatio": "186/409",
          "zIndex": "25",
          "imageScale": "1.2",
          "borderRadius": "1.7rem",
          "brightness": "1",
          "scrollSpeed": "1.2",
          "position": { "x": "-24%", "y": "" }
        },
        {
          "src": "img/project_images/definario_2.png",
          "altText": "Learning screen of the Definario app",
          "aspectRatio": "186/409",
          "zIndex": "24",
          "imageScale": "1.1",
          "borderRadius": "1.7rem",
          "brightness": "0.90",
          "scrollSpeed": "1.7",
          "position": { "x": "-89%", "y": "-8%" }
        },
        {
          "src": "img/project_images/definario_3.png",
          "altText": "",
          "aspectRatio": "186/409",
          "zIndex": "22",
          "imageScale": "0.9",
          "borderRadius": "1.3rem",
          "brightness": "0.70",
          "scrollSpeed": "2.5",
          "position": { "x": "66%", "y": "-33%" }
        },
        {
          "src": "img/project_images/definario_4.png",
          "altText": "",
          "aspectRatio": "186/409",
          "zIndex": "23",
          "imageScale": "1.1",
          "borderRadius": "1.3rem",
          "brightness": "0.95",
          "scrollSpeed": "2",
          "position": { "x": "106%", "y": "" }
        }
      ],
      "description": "A project, which originally was made to compete in a Polish Olympiad of Technical Innovation and Inventiveness. It was designed in a mobile-first convention, although it works just as well on widescreen. Unfortunately, preview is unavailable at the moment.",
      "technologies": ["Vue 3", "PWA", "TypeScript", "SCSS", "anime.js"],
      "projectLink": "",
      "linkList": []
    },
    {
      "title": "Mizore",
      "imageList": [
        {
          "src": "img/project_images/mizore_1.png",
          "altText": "Homepage of the Mizore website",
          "aspectRatio": "16/9",
          "zIndex": "25",
          "imageScale": "1",
          "brightness": "1",
          "scrollSpeed": "1.3",
          "position": { "x": "-15%", "y": "10%" }
        },
        {
          "src": "img/project_images/mizore_2.png",
          "altText": "Userpage of the Mizore website",
          "aspectRatio": "16/9",
          "zIndex": "24",
          "imageScale": "0.95",
          "brightness": "0.90",
          "scrollSpeed": "2.3",
          "position": { "x": "5%", "y": "-20%" }
        },
        {
          "src": "img/project_images/mizore_3.png",
          "altText": "Scores part of the userpage on the Mizore website",
          "aspectRatio": "16/9",
          "zIndex": "22",
          "imageScale": "0.9",
          "brightness": "0.70",
          "scrollSpeed": "2.7",
          "position": { "x": "35%", "y": "25%" }
        }
      ],
      "description": "Mizore is the front-end of a custom osu! game server named uncho. The project has been put on hold for some time, but got revised recently. Namely, I have started rewriting the web application to Next.js with much more experience than I had when I first started the project. This is why the screenshots look a bit different from the live website at the moment.",
      "technologies": ["Vue 2", "FontAwesome", "Less (CSS)"],
      "projectLink": "https://mizore.wojexe.com",
      "linkList": [
        { "icon": "Github", "url": "https://github.com/wojexe/mizore" }
      ]
    },
    {
      "title": "Portfolio",
      "imageList": [
        {
          "src": "img/project_images/portfolio_1.png",
          "altText": "Homepage of the Mizore website",
          "aspectRatio": "16/9",
          "zIndex": "25",
          "imageScale": "1",
          "brightness": "1",
          "scrollSpeed": "1.3",
          "position": { "x": "", "y": "" }
        },
        {
          "src": "img/project_images/portfolio_2.png",
          "altText": "Userpage of the Mizore website",
          "aspectRatio": "16/9",
          "zIndex": "24",
          "imageScale": "0.95",
          "brightness": "0.90",
          "scrollSpeed": "2.3",
          "position": { "x": "-25%", "y": "25%" }
        },
        {
          "src": "img/project_images/portfolio_3.png",
          "altText": "Scores part of the userpage on the Mizore website",
          "aspectRatio": "16/9",
          "zIndex": "22",
          "imageScale": "0.9",
          "brightness": "0.70",
          "scrollSpeed": "2.7",
          "position": { "x": "30%", "y": "-30%" }
        }
      ],
      "description": "This website you are browsing right now. It is my first app designed in Framer and written in React. My aim was to make it very informative in the cleanest way possible.",
      "technologies": ["React", "styled-components", "react-spring"],
      "projectLink": "",
      "linkList": [
        { "icon": "Github", "url": "https://github.com/wojexe/portfolio" }
      ]
    },
    {
      "title": "Family tree",
      "imageList": [
        {
          "src": "img/project_images/family_tree_1.png",
          "altText": "Example tree created by this app",
          "aspectRatio": "1249/771",
          "zIndex": "25",
          "imageScale": "1",
          "brightness": "1",
          "scrollSpeed": "1.3",
          "position": { "x": "-25%", "y": "-10%" }
        },
        {
          "src": "img/project_images/family_tree_2.png",
          "altText": "The person edit screen of the app",
          "aspectRatio": "1249/771",
          "zIndex": "24",
          "imageScale": "0.90",
          "brightness": "1",
          "scrollSpeed": "2.0",
          "position": { "x": "35%", "y": "10%" }
        }
      ],
      "description": "Relatively simple app, which I created to make my family's genealogy tree. It may not have the prettiest visuals, but it solved my problem just fine. I wanted flexibility and customization - that's exactly what I have achieved. Creating this app was a bit of a challange to me, as I did not write complicated logic too often before.",
      "technologies": ["Svelte", "LeaderLine", "svelte-persistent-store"],
      "projectLink": "https://family.wojexe.com",
      "linkList": [
        { "icon": "Github", "url": "https://github.com/wojexe/family-tree" }
      ]
    }
  ]
}
